Spread of Coronavirus
…
Compared with the national data, people tend to pay more attention to the data of their own state, so we will filter on the state of Maryland.

umd_around<-filter(covid_data, state == "MD")
umd_around

## # A tibble: 41 x 25
##    date  state positive negative pending hospitalizedcur~ hospitalizedcum~
##    <chr> <chr>    <dbl>    <dbl>   <dbl>            <dbl>            <dbl>
##  1 4/28~ MD       20113    87672      NA             1528             4268
##  2 4/27~ MD       19487    85489      NA             1513             4101
##  3 4/26~ MD       18581    78084      NA             1463             3962
##  4 4/25~ MD       17766    71357      NA             1408             3760
##  5 4/24~ MD       16616    68100      NA             1425             3618
##  6 4/23~ MD       15737    64363      NA             1405             3477
##  7 4/22~ MD       14775    61754      NA             1432             3325
##  8 4/21~ MD       14193    59442      NA             1433             3158
##  9 4/20~ MD       13684    57713      NA               NA             3014
## 10 4/19~ MD       12830    55061      NA               NA             2886
## # ... with 31 more rows, and 18 more variables: inicucurrently <dbl>,
## #   inicucumulative <dbl>, onventilatorcurrently <dbl>,
## #   onventilatorcumulative <dbl>, recovered <dbl>, hash <chr>,
## #   datechecked <chr>, death <dbl>, hospitalized <dbl>, total <dbl>,
## #   totaltestresults <dbl>, posneg <dbl>, fips <dbl>, deathincrease <dbl>,
## #   hospitalizedincrease <dbl>, negativeincrease <dbl>, positiveincrease <dbl>,
## #   totaltestresultsincrease <dbl>
…
hypothesis_covid

## # A tibble: 149 x 26
##    date       state positive negative pending hospitalizedcur~ hospitalizedcum~
##    <date>     <fct>    <dbl>    <dbl>   <dbl>            <dbl>            <dbl>
##  1 2020-04-28 CA       45031   532577      NA             4983               NA
##  2 2020-04-28 IL       48102   194087      NA             4738               NA
##  3 2020-04-28 MA       58302   196198      NA             3875             5515
##  4 2020-04-28 NJ      113856   120503      NA             6476               NA
##  5 2020-04-28 NY      295106   549888      NA            12645            64318
##  6 2020-04-27 CA       43464   509945      NA             4878               NA
##  7 2020-04-27 IL       45883   181745      NA             4672               NA
##  8 2020-04-27 MA       56462   188425      NA             3892             5237
##  9 2020-04-27 NJ      111188   116587      NA             6407               NA
## 10 2020-04-27 NY      291996   534099      NA            12819            63570
## # ... with 139 more rows, and 19 more variables: inicucurrently <dbl>,
## #   inicucumulative <dbl>, onventilatorcurrently <dbl>,
## #   onventilatorcumulative <dbl>, recovered <dbl>, hash <chr>,
## #   datechecked <chr>, death <dbl>, hospitalized <dbl>, total <dbl>,
## #   totaltestresults <dbl>, posneg <dbl>, fips <dbl>, deathincrease <dbl>,
## #   hospitalizedincrease <dbl>, negativeincrease <dbl>, positiveincrease <dbl>,
## #   totaltestresultsincrease <dbl>, numdays <int>
…
